…
``` r
output = vector("list", length = 500)

for (i in 1:500) {
  
  output[[i]] = sim_regression(n_subj = 30)
  
}

output |> 
  bind_rows()
```

    ## # A tibble: 500 × 2
    ##    beta0_hat beta1_hat
    ##        <dbl>     <dbl>
    ##  1      2.06      2.94
    ##  2      1.91      2.92
    ##  3      2.56      2.80
    ##  4      2.17      2.80
    ##  5      1.89      3.09
    ##  6      1.74      3.19
    ##  7      1.98      3.06
    ##  8      2.21      3.08
    ##  9      1.68      3.10
    ## 10      1.76      3.01
    ## # ℹ 490 more rows
…
